[{
  "_id": {
    "$oid": "61934f5daab3a68105e1a76a"
  },
  "designsFor": [
    "Home"
  ],
  "remarks": "",
  "date": {
    "$date": "2021-11-16T06:27:41.535Z"
  },
  "name": "Nikita Nandani",
  "contact": 6202878654,
  "email": "nikitann2501@gmail.com",
  "location": "delhi",
  "desImage": "1637044061527.jpg",
  "__v": 0
},{
  "_id": {
    "$oid": "61934f82aab3a68105e1a76c"
  },
  "designsFor": [
    "Home",
    "Office"
  ],
  "remarks": "",
  "date": {
    "$date": "2021-11-16T06:28:18.188Z"
  },
  "name": "Shreya Prasad",
  "contact": 6455884113,
  "email": "shreya@gmail.com",
  "location": "kolkata",
  "desImage": "1637044098185.jpg",
  "__v": 0
},{
  "_id": {
    "$oid": "61934fa5aab3a68105e1a76e"
  },
  "designsFor": [
    "Home",
    "Office",
    "Party",
    "Event"
  ],
  "remarks": "",
  "date": {
    "$date": "2021-11-16T06:28:53.951Z"
  },
  "name": "Ashish Saxena",
  "contact": 8077697119,
  "email": "ash.1006@yahoo.com",
  "location": "Other City",
  "desImage": "1637044133946.jpg",
  "__v": 0
},{
  "_id": {
    "$oid": "61934fcaaab3a68105e1a770"
  },
  "designsFor": [
    "Event"
  ],
  "remarks": "",
  "date": {
    "$date": "2021-11-16T06:29:30.650Z"
  },
  "name": "Priya Kumari",
  "contact": 9865740123,
  "email": "priyakumari@gmail.com",
  "location": "hyderabad",
  "desImage": "1637044170646.jpg",
  "__v": 0
},{
  "_id": {
    "$oid": "61934ff4aab3a68105e1a772"
  },
  "designsFor": [
    "Office",
    "Party"
  ],
  "remarks": "",
  "date": {
    "$date": "2021-11-16T06:30:12.138Z"
  },
  "name": "Jaswant Kumar",
  "contact": 9865745321,
  "email": "jaswant22@gmail.com",
  "location": "Other City",
  "desImage": "1637044212135.jpg",
  "__v": 0
},{
  "_id": {
    "$oid": "6193530aaab3a68105e1a775"
  },
  "designsFor": [
    "Party"
  ],
  "remarks": "",
  "date": {
    "$date": "2021-11-16T06:43:22.146Z"
  },
  "name": "Babli Ojha",
  "contact": 8879654012,
  "email": "ojha_babli@yahoo.co.in",
  "location": "kolkata",
  "desImage": "1637045002139.png",
  "__v": 0
},{
  "_id": {
    "$oid": "619357d075c598157e00d39b"
  },
  "designsFor": [
    "Party",
    "Event"
  ],
  "remarks": "",
  "date": {
    "$date": "2021-11-16T07:03:44.686Z"
  },
  "name": "Sanita Kumari",
  "contact": 7458963210,
  "email": "sanita@gmail.com",
  "location": "kolkata",
  "desImage": "1637046224678.jpg",
  "__v": 0
},{
  "_id": {
    "$oid": "6193594fed968ecea93900af"
  },
  "designsFor": [
    "Office"
  ],
  "remarks": "",
  "date": {
    "$date": "2021-11-16T07:10:07.075Z"
  },
  "name": "Paras Ranjan",
  "contact": 6202145365,
  "email": "ranjan.paras@gmail.com",
  "location": "Other City",
  "desImage": "1637046607058.jpg",
  "__v": 0
}]